11 37 7 23 12 2007
20 40 47 13 07 1973
12 28 11 01 09 1979
8 6 32 30 08 2014
12 46 53 06 10 2012
8 20 35 07 03 1998
15 31 45 11 08 1973
10 6 12 01 11 2003
2 9 29 16 03 1996
10 0 59 14 05 1979
3 13 3 28 02 1985
8 25 12 28 02 1984
3 30 35 21 06 1992
11 29 27 12 08 1981
21 44 19 21 11 1976
13 54 16 04 10 1980
14 26 35 05 01 1984
11 50 20 01 11 1979
0 33 44 10 11 2008
14 16 51 03 04 2018
